{"content":[{"id":997414,"mrr":false,"numeroConvocatoria":"795854","descripcion":"Ayudas a las familias 2024","descripcionLeng":null,"fechaRecepcion":"2024-11-10T12:42:47+01:00","nivel1":"ESTADILLA","nivel2":"AYUNTAMIENTO DE ESTADILLA","nivel3":null,"codigoInvente":null},{"id":997412,"mrr":false,"numeroConvocatoria":"795852","descripcion":"Convocatoria de subvenciones municipales para la adquisición de material escolar (excepto libros) para los estudios de educación primaria y secundaria. Curso 2024-2025.","descripcionLeng":"Convocatòria de subvencions municipals per a l'adquisició de material escolar (excepte llibres) per als estudis d’educació primària i secundària. Curs 2024-2025","fechaRecepcion":"2024-11-09T15:26:20+01:00","nivel1":"ULLDECONA","nivel2":"AYUNTAMIENTO DE ULLDECONA","nivel3":null,"codigoInvente":null},{"id":997411,"mrr":false,"numeroConvocatoria":"795851","descripcion":"Subvenciones para la organización y difusión de actos sociales y encuentros vecinales para el año 2024","descripcionLeng":"Subvencións para a organización e difusión de actos sociais e encontros veciñais para o ano 2024","fechaRecepcion":"2024-11-08T23:14:30+01:00","nivel1":"VIGO","nivel2":"AYUNTAMIENTO DE VIGO","nivel3":null,"codigoInvente":null},{"id":997388,"mrr":false,"numeroConvocatoria":"795828","descripcion":"SUBVENCIONES A ENTIDADES LOCALES SIN ÁNIMO DE LUCRO PARA EL AÑO 2024","descripcionLeng":null,"fechaRecepcion":"2024-11-08T15:03:45+01:00","nivel1":"FERNÁN-NÚÑEZ","nivel2":"AYUNTAMIENTO DE FERNÁN-NÚÑEZ","nivel3":null,"codigoInvente":null},{"id":997377,"mrr":false,"numeroConvocatoria":"795817","descripcion":"CONVOCATORIA, POR PROCEDIMIENTO ANTICIPADO DEL GASTO, PARA LA SELECCIÓN DE UNA ENTIDAD COLABORADORA PARA LA GESTIÓN DE LA SUBVENCIÓN DIRECTA BONO BONITO LA PALMA 2024","descripcionLeng":null,"fechaRecepcion":"2024-11-08T14:50:26+01:00","nivel1":"CABILDO INSULAR DE LA PALMA","nivel2":"EXCMO. CABILDO INSULAR DE LA PALMA","nivel3":null,"codigoInvente":null},{"id":997362,"mrr":false,"numeroConvocatoria":"795802","descripcion":"CONVOCATORIA PÚBLICA DE SUBVENCIONES DE SALUD EJERCICIO 2024.","descripcionLeng":null,"fechaRecepcion":"2024-11-08T14:30:52+01:00","nivel1":"CHICLANA DE LA FRONTERA","nivel2":"AYUNTAMIENTO DE CHICLANA DE LA FRONTERA","nivel3":null,"codigoInvente":null},{"id":997355,"mrr":false,"numeroConvocatoria":"795795","descripcion":"2024_Conc_Costes explotación taxis adaptados_2024 049 4411 47906_100217","descripcionLeng":null,"fechaRecepcion":"2024-11-08T14:18:10+01:00","nivel1":"MURCIA","nivel2":"AYUNTAMIENTO DE MURCIA","nivel3":null,"codigoInvente":null}],"pageable":{"sort":{"sorted":true,"unsorted":false,"empty":false},"pageNumber":0,"pageSize":25,"offset":0,"unpaged":false,"paged":true},"last":false,"totalPages":400,"totalElements":10000,"first":true,"sort":{"sorted":true,"unsorted":false,"empty":false},"numberOfElements":25,"size":25,"number":0,"empty":false,"advertencia":"La reutilización de los datos del Sistema Nacional de Publicidad de Subvenciones y Ayudas Públicas está sujeta a una serie de restricciones y consideraciones legales. Consulte el aviso legal en https://www.infosubvenciones.es/bdnstrans/GE/es/avisolegal.Además, el usuario debe ser consciente que la información presentada es de naturaleza dinámica, y que los datos pueden ser sometidos a correcciones, inserciones, modificaciones y eliminaciones en momentos posteriores a su extracción."}