{"content":[{"id":997414,"mrr":false,"numeroConvocatoria":"795854","descripcion":"Ayudas a las familias 2024","descripcionLeng":null,"fechaRecepcion":"2024-11-10T12:42:47+01:00","nivel1":"ESTADILLA","nivel2":"AYUNTAMIENTO DE ESTADILLA","nivel3":null,"codigoInvente":null},{"id":997412,"mrr":false,"numeroConvocatoria":"795852","descripcion":"Convocatoria de subvenciones municipales para la adquisición de material escolar (excepto libros) para los estudios de educación primaria y secundaria. Curso 2024-2025.","descripcionLeng":"Convocatòria de subvencions municipals per a l'adquisició de material escolar (excepte llibres) per als estudis d’educació primària i secundària. Curs 2024-2025","fechaRecepcion":"2024-11-09T15:26:20+01:00","nivel1":"ULLDECONA","nivel2":"AYUNTAMIENTO DE ULLDECONA","nivel3":null,"codigoInvente":null},{"id":997411,"mrr":false,"numeroConvocatoria":"795851","descripcion":"Subvenciones para la organización y difusión de actos sociales y encuentros vecinales para el año 2024","descripcionLeng":"Subvencións para a organización e difusión de actos sociais e encontros veciñais para o ano 2024","fechaRecepcion":"2024-11-08T23:14:30+01:00","nivel1":"VIGO","nivel2":"AYUNTAMIENTO DE VIGO","nivel3":null,"codigoInvente":null},{"id":997388,"mrr":false,"numeroConvocatoria":"795828","descripcion":"SUBVENCIONES A ENTIDADES LOCALES SIN ÁNIMO DE LUCRO PARA EL AÑO 2024","descripcionLeng":null,"fechaRecepcion":"2024-11-08T15:03:45+01:00","nivel1":"FERNÁN-NÚÑEZ","nivel2":"AYUNTAMIENTO DE FERNÁN-NÚÑEZ","nivel3":null,"codigoInvente":null},{"id":997377,"mrr":false,"numeroConvocatoria":"795817","descripcion":"CONVOCATORIA, POR PROCEDIMIENTO ANTICIPADO DEL GASTO, PARA LA SELECCIÓN DE UNA ENTIDAD COLABORADORA PARA LA GESTIÓN DE LA SUBVENCIÓN DIRECTA BONO BONITO LA PALMA 2024","descripcionLeng":null,"fechaRecepcion":"2024-11-08T14:50:26+01:00","nivel1":"CABILDO INSULAR DE LA PALMA","nivel2":"EXCMO. CABILDO INSULAR DE LA PALMA","nivel3":null,"codigoInvente":null},{"id":997362,"mrr":false,"numeroConvocatoria":"795802","descripcion":"CONVOCATORIA PÚBLICA DE SUBVENCIONES DE SALUD EJERCICIO 2024.","descripcionLeng":null,"fechaRecepcion":"2024-11-08T14:30:52+01:00","nivel1":"CHICLANA DE LA FRONTERA","nivel2":"AYUNTAMIENTO DE CHICLANA DE LA FRONTERA","nivel3":null,"codigoInvente":null},{"id":997355,"mrr":false,"numeroConvocatoria":"795795","descripcion":"2024_Conc_Costes explotación taxis adaptados_2024 049 4411 47906_100217","descripcionLeng":null,"fechaRecepcion":"2024-11-08T14:18:10+01:00","nivel1":"MURCIA","nivel2":"AYUNTAMIENTO DE MURCIA","nivel3":null,"codigoInvente":null},{"id":997353,"mrr":false,"numeroConvocatoria":"795793","descripcion":"Concurso de Belenes del Distrito de Chamberí 2024","descripcionLeng":null,"fechaRecepcion":"2024-11-08T14:12:39+01:00","nivel1":"MADRID","nivel2":"DISTRITO DE CHAMBERÍ","nivel3":null,"codigoInvente":null},{"id":997347,"mrr":false,"numeroConvocatoria":"795787","descripcion":"CONCURSO ESCAPARATES NAVIDEÑOS","descripcionLeng":null,"fechaRecepcion":"2024-11-08T14:09:28+01:00","nivel1":"DURANGO","nivel2":"AYUNTAMIENTO DE DURANGO","nivel3":null,"codigoInvente":null},{"id":997345,"mrr":false,"numeroConvocatoria":"795785","descripcion":"Convenio nominativo entre el Ayuntamiento de Guadalajara y el C.D. Ciudad de Guadalajara Fútbol Sala","descripcionLeng":null,"fechaRecepcion":"2024-11-08T14:07:24+01:00","nivel1":"GUADALAJARA","nivel2":"AYUNTAMIENTO DE GUADALAJARA","nivel3":null,"codigoInvente":null},{"id":997340,"mrr":false,"numeroConvocatoria":"795780","descripcion":"Resolución de 8 de noviembre de 2024 de la Presidenta del Servicio Público de Empleo, por la que se convocan subvenciones destinadas a la financiación del programa de primera experiencia profesional en las administraciones Públicas. ELPEX 2024","descripcionLeng":null,"fechaRecepcion":"2024-11-08T14:00:21+01:00","nivel1":"CASTILLA Y LEÓN","nivel2":"SERVICIO PÚBLICO DE EMPLEO DE CASTILLA Y LEÓN","nivel3":null,"codigoInvente":null},{"id":997331,"mrr":false,"numeroConvocatoria":"795771","descripcion":"Decreto 77/2024, de 5 de noviembre, por el que se modifica el Decreto 52/2020, de 1 de septiembre, por el que se regula la concesión directa de subvenciones en el marco del Programa Retorno del Talento. REG (UE) 2023/2831 de minimis, General.","descripcionLeng":null,"fechaRecepcion":"2024-11-08T13:41:05+01:00","nivel1":"CASTILLA-LA MANCHA","nivel2":"DIRECCIÓN GENERAL DE PROGRAMAS DE EMPLEO","nivel3":null,"codigoInvente":null},{"id":997321,"mrr":false,"numeroConvocatoria":"795761","descripcion":"Subvenciones para el acceso universal al Deporte Escolar.  2024WDIR0011","descripcionLeng":"Eskola Kirolarako sarbide unibertsalarako diru-laguntza.2024WDIR0011","fechaRecepcion":"2024-11-08T13:26:26+01:00","nivel1":"PASAIA","nivel2":"AYUNTAMIENTO DE PASAIA","nivel3":null,"codigoInvente":null},{"id":997319,"mrr":false,"numeroConvocatoria":"795759","descripcion":"Decreto 77/2024, de 5 de noviembre, por el que se modifica el Decreto 52/2020, de 1 de septiembre, por el que se regula la concesión directa de subvenciones en el marco del Programa Retorno del Talento. REG (UE) 2023/2832 de minimis, SIEG.    \n","descripcionLeng":null,"fechaRecepcion":"2024-11-08T13:26:19+01:00","nivel1":"CASTILLA-LA MANCHA","nivel2":"DIRECCIÓN GENERAL DE PROGRAMAS DE EMPLEO","nivel3":null,"codigoInvente":null},{"id":997307,"mrr":false,"numeroConvocatoria":"795747","descripcion":"BASES REGULADORAS PARA LA CONVOCATORIA DE SUBVENCIONES A ANPAS, CEIPS E IES SIN ÁNIMO DE LUCRO AÑO 2024 DEL AYUNTAMIENTO DE CERVO","descripcionLeng":"BASES REGULADORAS PARA A CONVOCATORIA DE SUBVENCIÓNS A ANPAS, CEIPS E IES SIN ÁNIMO DE LUCRO ANO 2024 DO CONCELLO DE CERVO","fechaRecepcion":"2024-11-08T13:14:38+01:00","nivel1":"CERVO","nivel2":"AYUNTAMIENTO DE CERVO","nivel3":null,"codigoInvente":null},{"id":997302,"mrr":false,"numeroConvocatoria":"795742","descripcion":"Resolución alcaldia 1487 convocatoria subvenciones para el fomento de nuevas actividades economicas y profesionales para trabajadores autonomos y sociedades para el año 2024","descripcionLeng":"Resolució alcaldia 1487 convocatòria subvencions per al foment de noves activitats econòmiques i professionals per a treballadors autònoms i societats per a l'any 2024","fechaRecepcion":"2024-11-08T13:06:18+01:00","nivel1":"CASTELLAR DEL VALLÈS","nivel2":"AYUNTAMIENTO DE CASTELLAR DEL VALLÈS","nivel3":null,"codigoInvente":null},{"id":997300,"mrr":false,"numeroConvocatoria":"795740","descripcion":"CONVOCATORIA PÚBLICA DE SUBVENCIONES A PERSONAS TRABAJADORAS AUTÓNOMAS PARA CUBRIR GASTOS ABONADOS EN CONCEPTO DE TRASPASO Y REAPERTURA DE NEGOCIOS COMERCIALES UBICADOS EN ESTELLA-LIZARRA","descripcionLeng":null,"fechaRecepcion":"2024-11-08T13:04:43+01:00","nivel1":"ESTELLA-LIZARRA","nivel2":"AYUNTAMIENTO DE ESTELLA-LIZARRA","nivel3":null,"codigoInvente":null},{"id":997296,"mrr":false,"numeroConvocatoria":"795736","descripcion":"CONVOCATORIA PARA LA CONCESIÓN DE SUBVENCIONES A LOS ESTABLECIMIENTOS DE CALAFELL COMO CONSECUENCIA DE LA UTILIZACIÓN DE LOS VALES DE DESUENTO EN LA CAMPAÑA \"BONS CALAFELL 2024\"","descripcionLeng":null,"fechaRecepcion":"2024-11-08T12:57:19+01:00","nivel1":"CALAFELL","nivel2":"AYUNTAMIENTO DE CALAFELL","nivel3":null,"codigoInvente":null},{"id":997295,"mrr":true,"numeroConvocatoria":"795735","descripcion":"Ajuts al finanament d'actuacions a la zona del PN d'Aigüestortes 2024-2026 (minimis)","descripcionLeng":"Ajuts al finanament d'actuacions a la zona del PN d'Aigüestortes 2024-2026 (minimis)","fechaRecepcion":"2024-11-08T12:56:37+01:00","nivel1":"CATALUÑA","nivel2":"DEPARTAMENT D'ACCIÓ CLIMÀTICA, ALIMENTACIÓ I AGENDA RURAL ","nivel3":null,"codigoInvente":null},{"id":997292,"mrr":false,"numeroConvocatoria":"795732","descripcion":"Subvenciones de la campaña deportiva UDA.  2024WDIR0008","descripcionLeng":"UDA kirol kanpainaren dirulaguntzak.2024WDIR0008","fechaRecepcion":"2024-11-08T12:52:17+01:00","nivel1":"PASAIA","nivel2":"AYUNTAMIENTO DE PASAIA","nivel3":null,"codigoInvente":null},{"id":997287,"mrr":false,"numeroConvocatoria":"795727","descripcion":"Resolución de la Dirección General del SEF, por la que se aprueba la convocatoria del año 2024 para la concesión de subvenciones del “Programa Mi Primer Empleo”, subprograma “Mi primer empleo en entidades locales” cofinanciadas por el FSE Plus 2021-2027.","descripcionLeng":null,"fechaRecepcion":"2024-11-08T12:50:18+01:00","nivel1":"REGIÓN DE MURCIA","nivel2":"SERVICIO REGIONAL DE EMPLEO Y FORMACIÓN (SEF)","nivel3":null,"codigoInvente":"INV00005060"},{"id":997283,"mrr":false,"numeroConvocatoria":"795723","descripcion":"Decreto 77/2024, de 5 de noviembre, por el que se modifica el Decreto 52/2020, de 1 de septiembre, por el que se regula la concesión directa de subvenciones en el marco del Programa Retorno del Talento. No mínimis.","descripcionLeng":null,"fechaRecepcion":"2024-11-08T12:46:53+01:00","nivel1":"CASTILLA-LA MANCHA","nivel2":"VICECONSEJERÍA DE EMPLEO, DIALOGO SOCIAL Y BIENESTAR LABORAL","nivel3":null,"codigoInvente":null},{"id":997282,"mrr":false,"numeroConvocatoria":"795722","descripcion":"I CONCURSO PROVINCIAL DE BELENES DE DIPUTACIÓN PROVINCIAL DE GRANADA. Navidad 2024 – 2025","descripcionLeng":null,"fechaRecepcion":"2024-11-08T12:46:40+01:00","nivel1":"DIPUTACIÓN PROV. DE GRANADA","nivel2":"DIPUTACIÓN PROVINCIAL DE GRANADA","nivel3":null,"codigoInvente":null},{"id":997273,"mrr":false,"numeroConvocatoria":"795713","descripcion":"Subvenciones ordinarias del deporte. 2024WDIR0007","descripcionLeng":"Kiroletako ohiko dirulaguntzak.2024WDIR0007","fechaRecepcion":"2024-11-08T12:36:50+01:00","nivel1":"PASAIA","nivel2":"AYUNTAMIENTO DE PASAIA","nivel3":null,"codigoInvente":null},{"id":997270,"mrr":false,"numeroConvocatoria":"795710","descripcion":"Ayudas al impulso de iniciativas de desarrollo empresarial en el medio rural de Aragón.","descripcionLeng":null,"fechaRecepcion":"2024-11-08T12:32:00+01:00","nivel1":"ARAGÓN","nivel2":"FUNDACIÓN ARAGÓN EMPRENDE","nivel3":null,"codigoInvente":"INV00002962"}],"pageable":{"sort":{"sorted":true,"unsorted":false,"empty":false},"pageNumber":0,"pageSize":25,"offset":0,"unpaged":false,"paged":true},"last":false,"totalPages":400,"totalElements":10000,"first":true,"sort":{"sorted":true,"unsorted":false,"empty":false},"numberOfElements":25,"size":25,"number":0,"empty":false,"advertencia":"La reutilización de los datos del Sistema Nacional de Publicidad de Subvenciones y Ayudas Públicas está sujeta a una serie de restricciones y consideraciones legales. Consulte el aviso legal en https://www.infosubvenciones.es/bdnstrans/GE/es/avisolegal.Además, el usuario debe ser consciente que la información presentada es de naturaleza dinámica, y que los datos pueden ser sometidos a correcciones, inserciones, modificaciones y eliminaciones en momentos posteriores a su extracción."}